@startuml Musikwecker
left to right direction
skinparam packageStyle rectangle

actor User

rectangle Agent {

    usecase UCTerminerinnerung as "User mit Terminerinnerung \nund einem Song passend zum Wetter wecken"

    usecase UCPreferenzen as "Preferenzen abfragen"
    usecase UCCurrentFavMusic as "Bei Spotify nach einem \npassendem Song zum Wetter suchen"

    usecase UCKalender as "Kalendertermine abfragen"

    usecase UCGetWeather as "Aktuelles Wetter in Stuttgart abfragen"

    usecase UCPlaySong as "Song abspielen"
    usecase UCStopSong as "Song stoppen"

    usecase UCDownloadYoutube as "Zum Wetter passenden Song \nvon Youtube laden"

    /' Connections '/
    User <-right- UCTerminerinnerung

    UCTerminerinnerung ..> UCPreferenzen : "<<include>>"
    UCTerminerinnerung ..> UCKalender : "<<include>>"

    UCTerminerinnerung ..> UCPlaySong : "<<include>>"
    UCTerminerinnerung ..> UCStopSong : "<<include>>"

    UCPlaySong ..> UCCurrentFavMusic : "<<include>>"
    UCPlaySong ..> UCDownloadYoutube : "<<include>>"
    UCPlaySong ..> UCGetWeather : "<<include>>"

    /' Notes '/
    note right of (UCPreferenzen)
        User moechte z.B. 1 Stunde vor dem
        ersten Termin geweckt werden
    end note

    note right of (UCStopSong)
        Durch Sprachsignal "Okay" oder
        "Ja, ich hab schon verstanden"
    end note
    
    note bottom of (UCTerminerinnerung)
        Erst ertoent das Wecksignal, dann 
        kann gestoppt werden. Nach dem Stoppen
        erzaehlt die App, welcher Termin als 
        naechstes ansteht
    end note

@enduml